Biostat 203B Homework 5
…
mimiciv_icu_cohort

# A tibble: 94,444 × 27
   subject_id  hadm_id  stay_id intime              first_careunit      los_long
        <int>    <int>    <int> <dttm>              <fct>               <fct>   
 1   10000032 29079034 39553978 2180-07-23 14:00:00 Medical Intensive … FALSE   
 2   10000690 25860671 37081114 2150-11-02 19:37:00 Medical Intensive … TRUE    
 3   10000980 26913865 39765666 2189-06-27 08:42:00 Medical Intensive … FALSE   
 4   10001217 24597018 37067082 2157-11-20 19:18:02 Surgical Intensive… FALSE   
 5   10001217 27703517 34592300 2157-12-19 15:42:24 Surgical Intensive… FALSE   
 6   10001725 25563031 31205490 2110-04-11 15:52:22 Medical/Surgical I… FALSE   
 7   10001843 26133978 39698942 2134-12-05 18:50:03 Medical/Surgical I… FALSE   
 8   10001884 26184834 37510196 2131-01-11 04:20:05 Medical Intensive … TRUE    
 9   10002013 23581541 39060235 2160-05-18 10:00:53 Cardiac Vascular I… FALSE   
10   10002114 27793700 34672098 2162-02-17 23:30:00 Other               TRUE    
# ℹ 94,434 more rows
# ℹ 21 more variables: admission_type <fct>, admission_location <fct>,
#   insurance <fct>, language <fct>, marital_status <fct>, race <fct>,
#   gender <fct>, chloride <dbl>, creatinine <dbl>, sodium <dbl>,
#   potassium <dbl>, glucose <dbl>, hematocrit <dbl>, wbc_count <dbl>,
#   bicarbonate <dbl>, `Noninvasive BP Systolic` <dbl>,
#   `Noninvasive BP Diastolic` <dbl>, `Respiratory Rate` <dbl>, …
…
Now, we can check for missing values across our dataset:

miss_var_summary(mimiciv_icu_cohort) 

# A tibble: 27 × 3
   variable       n_miss pct_miss
   <chr>           <int>    <num>
 1 glucose         11654    12.3 
 2 bicarbonate     11549    12.2 
 3 potassium       11387    12.1 
 4 chloride        11351    12.0 
 5 sodium          11330    12.0 
 6 creatinine       8027     8.50
 7 marital_status   7756     8.21
 8 wbc_count        6850     7.25
 9 hematocrit       6751     7.15
10 Temperature_F    1675     1.77
# ℹ 17 more rows
…
summary(icu_recipe)

# A tibble: 27 × 4
   variable           type      role      source  
   <chr>              <list>    <chr>     <chr>   
 1 subject_id         <chr [2]> ID        original
 2 hadm_id            <chr [2]> ID        original
 3 stay_id            <chr [2]> ID        original
 4 intime             <chr [1]> predictor original
 5 first_careunit     <chr [3]> predictor original
 6 admission_type     <chr [3]> predictor original
 7 admission_location <chr [3]> predictor original
 8 insurance          <chr [3]> predictor original
 9 language           <chr [3]> predictor original
10 marital_status     <chr [3]> predictor original
# ℹ 17 more rows
…
Engine-Specific Arguments:
  standardize = FALSE

Computational engine: glmnet 

Now, we can tune our hyperparameters:

# Define the tuning grid
param_grid <- grid_regular(
  penalty(range = c(-6, 3)), 
  mixture(),
  levels = c(100, 5)
) |> print()

# A tibble: 500 × 2
      penalty mixture
        <dbl>   <dbl>
 1 0.000001         0
 2 0.00000123       0
 3 0.00000152       0
 4 0.00000187       0
 5 0.00000231       0
 6 0.00000285       0
 7 0.00000351       0
 8 0.00000433       0
 9 0.00000534       0
10 0.00000658       0
# ℹ 490 more rows
…
And we can visualize results:

logit_fit |>
  collect_metrics() |>
  print(width = Inf) |>
  filter(.metric == "roc_auc") |>
  ggplot(mapping = aes(x = penalty, y = mean, color = factor(mixture))) +
  geom_point() +
  labs(x = "Penalty", y = "CV AUC") +
  scale_x_log10()

# A tibble: 1,000 × 8
      penalty mixture .metric  .estimator  mean     n std_err
        <dbl>   <dbl> <chr>    <chr>      <dbl> <int>   <dbl>
 1 0.000001         0 accuracy binary     0.584     5 0.00103
 2 0.000001         0 roc_auc  binary     0.616     5 0.00151
 3 0.00000123       0 accuracy binary     0.584     5 0.00103
 4 0.00000123       0 roc_auc  binary     0.616     5 0.00151
 5 0.00000152       0 accuracy binary     0.584     5 0.00103
 6 0.00000152       0 roc_auc  binary     0.616     5 0.00151
 7 0.00000187       0 accuracy binary     0.584     5 0.00103
 8 0.00000187       0 roc_auc  binary     0.616     5 0.00151
 9 0.00000231       0 accuracy binary     0.584     5 0.00103
10 0.00000231       0 roc_auc  binary     0.616     5 0.00151
   .config               
   <chr>                 
 1 Preprocessor1_Model001
 2 Preprocessor1_Model001
 3 Preprocessor1_Model002
 4 Preprocessor1_Model002
 5 Preprocessor1_Model003
 6 Preprocessor1_Model003
 7 Preprocessor1_Model004
 8 Preprocessor1_Model004
 9 Preprocessor1_Model005
10 Preprocessor1_Model005
# ℹ 990 more rows
…
Computational engine: xgboost 

Next, we define our tuning grid:

param_grid_xgb <- grid_regular(
  trees(range = c(100L, 500L)),
  tree_depth(range = c(1L, 3L)),
  learn_rate(range = c(-5, 2), trans = log10_trans()),
  levels = c(3, 3, 3)) %>% 
  print()

# A tibble: 27 × 3
   trees tree_depth learn_rate
   <int>      <int>      <dbl>
 1   100          1    0.00001
 2   300          1    0.00001
 3   500          1    0.00001
 4   100          2    0.00001
 5   300          2    0.00001
 6   500          2    0.00001
 7   100          3    0.00001
 8   300          3    0.00001
 9   500          3    0.00001
10   100          1    0.0316 
# ℹ 17 more rows
…
